A
A-
B+
B
B-
C+
C
C-
D+
D
D-
F
F
F
F
F
F
F
F
F
F
F
F
D-
F
F
F
F
D-
F
F
F
D-
F
F
F
F
F
F
D-
F
F
F
F
F
D-
F
F
F
F
F
F
F
F
F
F
F
F
F
F
F
F
F
F
D+
F
F
F
F
F
F
F
F
F
F
F
D-
F
F
F
F
F
F
F
F
F
F
F
F
F
F
F
F
F
D+
F
F
F
F
D-
F
F
D-
F
F
D-
F
F
F
F
F
F
F
F
F
F
F
D-
F
F
F
F
F
F
F
F
F
D
F
F
F
F
F
F
D-
F
F
F
F
F
F
F
F
F
F
F
F
F
F
F
F
F
F
F
F
F
F
F
F
F
F
F
F
F
F
F
F
F
F
F
F
F
F
F
F
F
F
F
F
F
F
F
F
F
F
F
F
F
F
F
F
F
F
F
F
F
F
F
F
F
D+
F
F
F
F
F
F
F
F
F
D+
C-
F
F
F
F
F
F
F
F
F
F
F
D+
F
F
F
F
F
F
F
F
F
F
F
F
F
F
F
D-
F
F
F
F
F
D-
F
F
F
F
F
D
F
F
F
F
F
F
F
D-
F
F
F
F
F
F
F
D-
F
F
F
F
F
F
D-
F
F
F
D-
F
F
F
F
F
F
F
F
F
